<svg xmlns="http://www.w3.org/2000/svg" xmlns:xlink="http://www.w3.org/1999/xlink" width="48" height="48" viewBox="0 0 48 48">
  <defs>
    <rect id="rect-1" width="48" height="48" x="0" y="0"/>
    <mask id="mask-2" maskContentUnits="userSpaceOnUse" maskUnits="userSpaceOnUse">
      <rect width="48" height="48" x="0" y="0" fill="black"/>
      <use fill="white" xlink:href="#rect-1"/>
    </mask>
  </defs>
  <g>
    <use fill="none" xlink:href="#rect-1"/>
    <g mask="url(#mask-2)">
      <path fill="rgb(91,194,220)" fill-opacity=".98" fill-rule="evenodd" d="M24.00159375 47.11115625L11.076 28.44440625c-4.82428125-6.43246875-4.184625-17.13778125 1.50084375-22.82325C18.8865-.6885 29.11659375-.6885 35.42625 5.62115625c5.6855625 5.68546875 6.32521875 16.390875 1.5009375 22.82325l-12.92559375 18.66675z"/>
      <path fill="rgb(160,227,244)" fill-rule="evenodd" d="M32.75971875 5.6210625c-3.253125-3.249-7.74178125-4.949625-12.331125-4.67203125-.04921875.18215625-.159375.342-.312.453-.9958125.7674375-2.1811875 1.25015625-3.42984375 1.3966875-.552.10021875-1.09078125.26315625-1.60584375.48571875C14.80528125 4.45078125 14.17425 5.50275 13.275 6.295125 11.82965625 7.656 10.4581875 9.09328125 9.16659375 10.60078125c-.1305.3114375-.2439375.6298125-.33975.95353125-.3193125 1.34728125-.56775 2.7103125-.74428125 4.0835625.10996875 1.22128125.1438125 2.43759375.15646875 3.669375-.07959375 1.05103125-.075375 2.10675.01265625 3.157125l.001125.00215625c.04696875.12871875.0808125.2461875.1215.3691875 1.98084375 4.35309375 4.28240625 8.553 6.8855625 12.565125 2.13309375 3.0774375 5.81203125 6.47634375 7.19184375 10.097625l11.8089375-17.0540625c4.8241875-6.43246875 4.18453125-17.13778125-1.5009375-22.82334375z"/>
      <ellipse cx="24.159" cy="16.889" fill="rgb(91,194,220)" fill-opacity=".13" rx="5.333" ry="5.333"/>
      <ellipse cx="22.825" cy="16.889" fill="rgb(252,254,255)" rx="4" ry="5.333"/>
      <path fill="rgb(255,255,255)" fill-rule="evenodd" d="M12.91696875 5.6210625C16.33809375 2.19403125 21.11840625.4861875 25.9365.96946875 22.03303125 1.202625 18.35015625 2.8573125 15.5836875 5.6210625h-.00009375C9.898125 11.306625 9.258375 22.0119375 14.08275 28.44440625l11.59228125 16.741125-1.3333125 1.92553125L11.416125 28.44440625C6.59184375 22.0119375 7.2315 11.306625 12.91696875 5.6210625z"/>
      <g>
        <path fill="rgb(27,155,187)" fill-rule="evenodd" d="M17.93661499 16.88897705c0 3.43640137 2.7857666 6.222229 6.22219849 6.222229 3.43469238-.00421142 6.2180481-2.78759765 6.22216797-6.222229 0-3.43640137-2.7857666-6.22216797-6.22216797-6.22216797-3.43643189 0-6.22219849 2.7857666-6.22219849 6.22216797zm1.77780151-.00012207c0-2.4545288 1.98983765-4.44439697 4.44439698-4.44439697 2.45333862.00280762 4.4414978 1.99108887 4.44442749 4.44439697 0 2.45458984-1.98986817 4.44439697-4.4444275 4.44439697-2.45455932 0-4.44439697-1.98980713-4.44439697-4.44439697z"/>
        <path fill="rgb(27,155,187)" fill-rule="evenodd" d="M23.27081299 47.6171875c.16601562.2397461.43920898.3828125.73086548.3828125.2916565 0 .5647583-.1430664.730896-.3828125l12.90542602-18.63983154c5.11547851-6.81854248 4.37503052-18.0269165-1.5833435-23.98431397C32.85815428 1.79608154 28.52249145 0 24.00167846 0c-4.520813 0-8.85644532 1.79608154-12.05285645 4.99310303C5.990448 10.95056153 5.25 22.15893555 10.3454895 28.95056153L23.270813 47.6171875zm-10.065094-41.36712646c2.8569336-2.87280274 6.7444458-4.4831543 10.79595948-4.47229004 4.05148315-.01086426 7.93902588 1.5994873 10.79595947 4.47229004 5.377594 5.37670898 6.0399475 15.49908447 1.39846802 21.68835449l-12.1944275 17.61114502-12.2144165-17.6380005C7.16577148 21.74914552 7.828125 11.62677003 13.205719 6.25006105z"/>
      </g>
    </g>
  </g>
</svg>
