<?xml version="1.0" encoding="UTF-8"?>
<svg width="25px" height="30px" viewBox="0 0 25 30" version="1.1" xmlns="http://www.w3.org/2000/svg" xmlns:xlink="http://www.w3.org/1999/xlink">
    <!-- Generator: Sketch 55.2 (78181) - https://sketchapp.com -->
    <title>tree-icon-Critico@2x</title>
    <desc>Created with Sketch.</desc>
    <g id="Page-1" stroke="none" stroke-width="1" fill="none" fill-rule="evenodd">
        <g id="tree-icon-Critico" fill-rule="nonzero">
            <path d="M8.50755269,29.0042155 C9.06774005,28.4852459 9.66539813,27.1915691 10.3145785,24.5714286 C10.3173888,24.5611241 10.3192623,24.5526932 10.3201991,24.5423888 C10.3529859,24.3400468 10.8223068,21.1007026 9.76001171,18.0299766 C9.65322014,17.7217799 10.0419789,17.4866511 10.2621194,17.7274005 L10.6049766,18.7569087 C10.7895199,18.9592506 11.1258197,18.828103 11.1258197,18.5545667 L11.1258197,16.6819672 C11.1258197,16.504918 11.2785129,16.3662763 11.4546253,16.3840749 L13.1548595,16.5508197 C13.3084895,16.565808 13.4255855,16.695082 13.4255855,16.8487119 L13.4255855,18.1639344 C13.4255855,18.4355972 13.7581382,18.5667447 13.9436183,18.3690867 L15.06774,17.1700234 C15.2316745,16.9948478 15.5258197,17.0744731 15.5782787,17.3086651 L15.7244145,17.9540984 C15.750644,18.0702576 15.7066159,18.1920375 15.6101288,18.2613583 C14.9422131,18.7391101 12.7792155,20.8936768 13.746897,25.9316159 C13.7497073,25.9466042 13.7525176,25.959719 13.7581382,25.9737705 C13.8227752,26.1648712 14.0401054,27.6852459 15.338466,28.9152225 C15.5108314,29.0782201 15.4387002,29.365808 15.209192,29.4229508 C14.8775761,29.5063232 14.4644614,29.6177986 14.1581382,29.7264637 C13.2672717,30.0412178 12.0616511,29.288993 11.6569672,29.0088993 C11.568911,28.9480094 11.4583724,28.9395785 11.3618852,28.9845433 C10.9047424,29.2009368 9.57265808,29.7976581 9.05368852,29.6496487 C8.87663934,29.5990632 8.72862998,29.5484778 8.60591335,29.5016393 C8.39514052,29.4248244 8.3426815,29.1569087 8.50755269,29.0042155 Z" id="Path" fill="#997960" opacity="0.65"></path>
            <path d="M20.6658665,9.13629977 C21.4696136,8.1704918 21.9529859,6.929274 21.9529859,5.57470726 C21.9529859,2.49648712 19.4574356,0 16.3782787,0 C14.4073185,0 12.6789813,1.02576112 11.6878806,2.56955504 C11.0162178,2.0206089 10.1693794,1.67775176 9.23448478,1.67775176 C7.24197892,1.67775176 5.61762295,3.17845433 5.38436768,5.10819672 C5.31411007,5.10444965 5.24759953,5.08758782 5.17546838,5.08758782 C3.02371194,5.08758782 1.27851288,6.83185012 1.27851288,8.98454333 C1.27851288,9.57470726 1.41996487,10.1283372 1.65509368,10.630445 C0.653688525,11.6384075 0.0344847775,13.0266979 0.0344847775,14.5592506 C0.0344847775,17.6384075 2.53003513,20.1339578 5.60919204,20.1339578 C7.83026932,20.1339578 9.74314988,18.8309133 10.6387002,16.9508197 C11.2026347,17.2065574 11.8227752,17.357377 12.48226,17.357377 C13.1529859,17.357377 13.7834309,17.1990632 14.3548595,16.9348946 C15.2475995,18.8234192 17.1642272,20.1339578 19.3918618,20.1339578 C22.4710187,20.1339578 24.9665691,17.6384075 24.9665691,14.5592506 C24.9665691,11.9194379 23.1295667,9.71334895 20.6658665,9.13629977 Z" id="Path" fill="#DA9155" opacity="0.4"></path>
            <g id="Group" opacity="0.8" transform="translate(4.098361, 1.697892)" fill="#B25941">
                <circle id="Oval" cx="5.01528103" cy="3.78782201" r="1.25901639"></circle>
                <circle id="Oval" cx="12.892623" cy="1.26978923" r="1.25901639"></circle>
                <circle id="Oval" cx="10.5984192" cy="8.36861827" r="1.51569087"></circle>
                <circle id="Oval" cx="2.3632904" cy="8.16814988" r="2.3175644"></circle>
                <circle id="Oval" cx="2.45228337" cy="14.2065574" r="1.96159251"></circle>
                <circle id="Oval" cx="16.0925644" cy="13.771897" r="2.97704918"></circle>
            </g>
        </g>
    </g>
</svg>